…
```
## 
##   adelmo carlitos  charles   eurico   jeremy    pedro 
##     3892     3112     3536     3070     3402     2610
```

```r
tbl_df(pml_training[,8:50])
```

```
## # A tibble: 19,622 x 43
##    roll_belt pitch_belt yaw_belt total_accel_belt kurtosis_roll_belt
##        <dbl>      <dbl>    <dbl>            <int>              <dbl>
##  1      1.41       8.07    -94.4                3                 NA
##  2      1.41       8.07    -94.4                3                 NA
##  3      1.42       8.07    -94.4                3                 NA
##  4      1.48       8.05    -94.4                3                 NA
##  5      1.48       8.07    -94.4                3                 NA
##  6      1.45       8.06    -94.4                3                 NA
##  7      1.42       8.09    -94.4                3                 NA
##  8      1.42       8.13    -94.4                3                 NA
##  9      1.43       8.16    -94.4                3                 NA
## 10      1.45       8.17    -94.4                3                 NA
## # ... with 19,612 more rows, and 38 more variables: kurtosis_picth_belt <dbl>,
## #   kurtosis_yaw_belt <lgl>, skewness_roll_belt <dbl>,
## #   skewness_roll_belt.1 <dbl>, skewness_yaw_belt <lgl>, max_roll_belt <dbl>,
## #   max_picth_belt <int>, max_yaw_belt <dbl>, min_roll_belt <dbl>,
## #   min_pitch_belt <int>, min_yaw_belt <dbl>, amplitude_roll_belt <dbl>,
## #   amplitude_pitch_belt <int>, amplitude_yaw_belt <dbl>,
## #   var_total_accel_belt <dbl>, avg_roll_belt <dbl>, stddev_roll_belt <dbl>,
## #   var_roll_belt <dbl>, avg_pitch_belt <dbl>, stddev_pitch_belt <dbl>,
## #   var_pitch_belt <dbl>, avg_yaw_belt <dbl>, stddev_yaw_belt <dbl>,
…
